{
    // See https://go.microsoft.com/fwlink/?LinkId=733558
    // for the documentation about the tasks.json format
    "version": "2.0.0",
    "tasks": [
        {
            "label": "esp-idf environment",
            "type": "shell",
            "command": ". /Users/ellerena/engineer/eclipse/Eclipse.app/Contents/MacOS/eclipse.sh p",
            "problemMatcher": []
        },
        {
            "label": "esp-idf build",
            "type": "shell",
            "command": ". ./build.sh ${fileDirname}",
            // "args": [
            //     ""
            // ],
            "problemMatcher": [],
            "group": {
                "kind": "build",
                "isDefault": true
            },
            // "dependsOn":"esp-idf environment"
        }
    ]
}
